<?xml version="1.0" encoding="iso-8859-1"?>
<!-- Generator: Adobe Illustrator 19.0.0, SVG Export Plug-In . SVG Version: 6.00 Build 0)  -->
<svg version="1.1" id="Capa_1" xmlns="http://www.w3.org/2000/svg" xmlns:xlink="http://www.w3.org/1999/xlink" x="0px" y="0px"
	 viewBox="0 0 512.006 512.006" style="enable-background:new 0 0 512.006 512.006;" xml:space="preserve">
<rect x="256.003" y="42.581" style="fill:#DA1C4B;" width="119.516" height="68.295"/>
<g>
	<path style="fill:#143441;" d="M25.507,486.499c-4.712,0-8.537-3.825-8.537-8.537v-85.369c0-4.712,3.825-8.537,8.537-8.537
		s8.537,3.825,8.537,8.537v85.369C34.044,482.674,30.219,486.499,25.507,486.499z"/>
	<path style="fill:#143441;" d="M486.499,486.499c-4.712,0-8.537-3.825-8.537-8.537v-85.369c0-4.712,3.825-8.537,8.537-8.537
		s8.537,3.825,8.537,8.537v85.369C495.036,482.674,491.211,486.499,486.499,486.499z"/>
	<path style="fill:#143441;" d="M256.003,187.708c-4.712,0-8.537-3.825-8.537-8.537V25.507c0-4.712,3.825-8.537,8.537-8.537
		s8.537,3.825,8.537,8.537v153.664C264.54,183.883,260.715,187.708,256.003,187.708z"/>
</g>
<polygon style="fill:#D3843D;" points="503.573,486.499 8.433,486.499 256.003,145.023 "/>
<polygon style="fill:#995F5B;" points="384.056,486.499 127.95,486.499 256.003,264.54 "/>
<g>
	<polygon style="fill:#FFD782;" points="256.003,264.54 145.023,358.446 127.95,486.499 	"/>
	<polygon style="fill:#FFD782;" points="256.003,264.54 366.982,358.446 384.056,486.499 	"/>
</g>
<path d="M25.507,384.056c-4.712,0-8.537,3.825-8.537,8.537v67.612L1.518,481.462c-1.742,2.518-2.006,5.771-0.683,8.537
	c1.349,3.005,4.303,4.96,7.598,5.037h495.14c3.218-0.009,6.155-1.827,7.598-4.695c1.323-2.766,1.059-6.019-0.683-8.537
	l-15.452-21.598v-67.612c0-4.712-3.825-8.537-8.537-8.537s-8.537,3.825-8.537,8.537v44.05L264.54,142.292v-22.879h110.98
	c4.712,0,8.537-3.825,8.537-8.537V42.581c0-4.712-3.825-8.537-8.537-8.537H264.54v-8.537c0-4.712-3.825-8.537-8.537-8.537
	c-4.712,0-8.537,3.825-8.537,8.537v116.785L34.044,436.643v-44.05C34.044,387.872,30.219,384.056,25.507,384.056z M287.845,302.7
	l71.112,59.758l10.927,82.04l-44.733-77.515L287.845,302.7z M256.003,281.614l113.285,196.348H142.718L256.003,281.614z
	 M186.854,366.982l-44.733,77.515l10.927-82.04L224.16,302.7L186.854,366.982z M391.739,477.962l-16.22-120.626
	c-0.273-2.092-1.306-4.004-2.903-5.378l-110.98-93.906l0,0l-1.11-0.598c-0.444-0.35-0.931-0.632-1.451-0.854
	c-0.512-0.043-1.024-0.043-1.537,0c-0.879-0.341-1.852-0.341-2.732,0c-0.512-0.043-1.024-0.043-1.537,0
	c-0.521,0.222-1.007,0.504-1.451,0.854l-1.11,0.598l0,0l-110.98,93.906c-1.596,1.374-2.629,3.287-2.903,5.378l-16.391,120.626
	h-94.93l230.496-318.426l230.496,318.426H391.739z M366.982,51.118v51.221H264.54V51.118H366.982z"/>
<g>
</g>
<g>
</g>
<g>
</g>
<g>
</g>
<g>
</g>
<g>
</g>
<g>
</g>
<g>
</g>
<g>
</g>
<g>
</g>
<g>
</g>
<g>
</g>
<g>
</g>
<g>
</g>
<g>
</g>
</svg>
