<?xml version="1.0" encoding="iso-8859-1"?>
<!-- Generator: Adobe Illustrator 19.0.0, SVG Export Plug-In . SVG Version: 6.00 Build 0)  -->
<svg version="1.1" id="Capa_1" xmlns="http://www.w3.org/2000/svg" xmlns:xlink="http://www.w3.org/1999/xlink" x="0px" y="0px"
	 viewBox="0 0 512.032 512.032" style="enable-background:new 0 0 512.032 512.032;" xml:space="preserve">
<path style="fill:#5D9BEB;" d="M512.005,256c0,141.397-114.603,256-256,256s-256-114.603-256-256s114.603-256,256-256
	S512.005,114.613,512.005,256z"/>
<path style="fill:#4988DB;" d="M389.019,115.371c-2.416-2.913-5.3-5.404-8.533-7.371l-0.779-0.768l-0.075-0.075h-0.608
	c-1.152-0.634-2.338-1.203-3.552-1.707c-12.011-4.949-24.789-3.84-35.083,3.04c-9.955,6.627-15.939,17.791-15.947,29.749
	c0,11.733,7.2,23.083,13.461,29.675l0.672,1.824l-55.467-55.275l-0.491-0.16c-3.292-3.926-7.491-6.991-12.235-8.928
	c-11.851-4.779-24.256-3.733-34.027,2.869c-9.859,6.788-15.697,18.035-15.573,30.005c0,9.781,2.432,17.963,7.008,24.117l-48-47.659
	l-0.523-0.192c-3.684-4.353-8.421-7.691-13.76-9.696c-11.759-4.346-24.899-2.677-35.2,4.469c-9.611,6.53-15.425,17.342-15.573,28.96
	c0,11.552,6.4,24.075,13.376,30.997v173.781c-9.899,10.955-19.136,31.552-7.957,49.515l-0.053,0.469l1.067,1.141
	c2.128,3.047,4.723,5.74,7.691,7.979l25.323,26.016l83.2,83.2c6.158,0.441,12.373,0.669,18.645,0.683c141.387,0,256-114.603,256-256
	c0-5.963-0.224-11.872-0.619-17.739L391.952,119.467C391.066,118.038,390.085,116.67,389.019,115.371z M236.805,171.371
	l-2.837-2.837c0.91,0.672,1.857,1.292,2.837,1.856V171.371z"/>
<path style="fill:#F4F6F9;" d="M384.005,342.763V168.992c11.04-12.117,20.523-34.827,5.003-53.621
	c-3.635-4.361-8.283-7.766-13.536-9.92c-12.011-4.949-24.789-3.84-35.083,3.04c-9.955,6.627-15.939,17.791-15.947,29.749
	c0,12.555,8.277,24.725,14.795,31.029V224c0,5.621-7.179,12.8-12.8,12.8h-21.365c-5.76-12-17.888-24.128-29.867-29.867v-36.8
	c14.421-9.333,19.957-28.629,12.8-46.656c-3.185-8.212-9.59-14.764-17.728-18.133c-11.851-4.779-24.256-3.733-34.027,2.869
	c-9.859,6.788-15.697,18.035-15.573,30.005c0,14.987,5.675,26.24,16.085,32.171v36.544c-11.968,5.739-24.096,17.867-29.867,29.867
	h-21.291c-4.907,0-12.8-7.893-12.8-12.8v-53.899c11.84-7.851,17.717-23.339,14.432-39.157
	c-2.517-12.085-10.869-22.101-21.803-26.133c-11.759-4.346-24.899-2.677-35.2,4.469c-9.611,6.53-15.425,17.342-15.573,28.96
	c0,11.552,6.4,24.075,13.376,30.997v173.792c-9.973,11.029-19.275,31.84-7.733,49.888c4.556,7.033,11.414,12.263,19.403,14.795
	c3.821,1.242,7.812,1.878,11.829,1.888c19.845,0.042,35.977-15.995,36.053-35.84c0-12.565-8.267-24.736-14.773-31.029V288
	c0-5.621,7.179-12.8,12.8-12.8h21.333c5.76,12,17.888,24.128,29.867,29.867v36.811c-14.443,9.344-19.989,28.651-12.8,46.667
	c3.184,8.217,9.595,14.769,17.739,18.133c11.851,4.768,24.245,3.712,34.016-2.891c9.849-6.786,15.681-18.023,15.563-29.984
	c0-14.997-5.664-26.24-16.064-32.171v-36.565c11.968-5.739,24.096-17.867,29.867-29.867h21.333c5.024,0,12.8,7.776,12.8,12.8v53.899
	c-11.861,7.861-17.739,23.349-14.443,39.179c2.517,12.085,10.869,22.091,21.813,26.112c11.763,4.339,24.903,2.662,35.2-4.491
	c9.6-6.528,15.409-17.33,15.563-28.939C397.371,362.208,390.928,349.685,384.005,342.763z M374.48,392.203
	c-6.847,4.816-15.634,5.931-23.467,2.976c-6.827-2.517-12.075-8.917-13.696-16.715c-1.973-9.493,0.661-22.027,11.115-27.115
	c2.19-1.078,3.577-3.308,3.573-5.749V288c0-11.957-13.643-25.6-25.6-25.6h-25.6c-2.718-0.006-5.142,1.705-6.048,4.267
	c-3.808,10.923-17.173,24.299-28.053,28.064c-2.562,0.906-4.273,3.33-4.267,6.048v44.8c-0.002,2.623,1.596,4.981,4.032,5.952
	c7.989,3.2,12.043,10.667,12.043,22.208c0.116,7.709-3.605,14.973-9.931,19.381c-6.272,4.267-14.123,4.811-22.069,1.621
	c-4.902-2.031-8.757-5.982-10.667-10.933c-5.216-13.173-0.853-27.136,10.155-32.48c2.195-1.066,3.594-3.287,3.605-5.728v-44.8
	c0.006-2.718-1.705-5.142-4.267-6.048c-10.869-3.765-24.245-17.141-28.053-28.064c-0.906-2.562-3.33-4.273-6.048-4.267h-25.632
	c-12.683,0-25.6,12.917-25.6,25.6v57.6c0.001,1.948,0.887,3.789,2.411,5.003c5.056,4.021,12.363,14.592,12.363,23.157
	c-0.031,7.35-3.559,14.246-9.504,18.571c-6.284,4.507-14.357,5.698-21.675,3.2c-5.156-1.618-9.59-4.978-12.544-9.504
	c-9.131-14.272,2.549-30.709,7.808-35.829c1.248-1.212,1.949-2.879,1.941-4.619V166.4c-0.001-1.948-0.887-3.789-2.411-5.003
	c-5.184-4.128-10.965-14.656-10.965-23.157c0.151-7.429,3.918-14.317,10.091-18.453c6.851-4.809,15.637-5.916,23.467-2.955
	c6.827,2.517,12.075,8.928,13.696,16.715c1.973,9.493-0.661,22.027-11.093,27.104c-2.194,1.075-3.585,3.306-3.584,5.749V224
	c0,11.957,13.643,25.6,25.6,25.6h25.6c2.718,0.006,5.142-1.705,6.048-4.267c3.808-10.923,17.173-24.299,28.053-28.064
	c2.562-0.906,4.273-3.33,4.267-6.048V166.4c0.002-2.623-1.596-4.981-4.032-5.952c-8-3.2-12.053-10.667-12.053-22.208
	c-0.119-7.713,3.602-14.981,9.931-19.392c6.283-4.267,14.112-4.811,22.08-1.6c4.875,2.045,8.704,5.989,10.603,10.923
	c5.205,13.173,0.853,27.136-10.133,32.48c-2.186,1.082-3.568,3.311-3.563,5.749v44.8c-0.006,2.718,1.705,5.142,4.267,6.048
	c10.869,3.765,24.245,17.141,28.053,28.064c0.906,2.562,3.33,4.273,6.048,4.267h25.6c12.683,0,25.6-12.917,25.6-25.6V166.4
	c-0.001-1.948-0.887-3.789-2.411-5.003c-5.056-4.032-12.373-14.592-12.373-23.157c0.012-7.686,3.861-14.859,10.261-19.115
	c6.688-4.469,15.104-5.152,23.083-1.845c3.308,1.354,6.236,3.491,8.533,6.229c12.192,14.773-0.192,32.661-5.995,38.304
	c-1.213,1.216-1.885,2.869-1.867,4.587v179.2c0.001,1.948,0.887,3.789,2.411,5.003c5.173,4.128,10.944,14.645,10.944,23.157
	c-0.145,7.425-3.903,14.314-10.069,18.453L374.48,392.203z"/>
<g>
</g>
<g>
</g>
<g>
</g>
<g>
</g>
<g>
</g>
<g>
</g>
<g>
</g>
<g>
</g>
<g>
</g>
<g>
</g>
<g>
</g>
<g>
</g>
<g>
</g>
<g>
</g>
<g>
</g>
</svg>
